<svg width="29" height="23" viewBox="0 0 29 23" fill="none" xmlns="http://www.w3.org/2000/svg">
<path d="M7.68594 19.8498V18.7198C7.71594 18.3498 7.43594 18.0298 7.06594 17.9998C7.03594 17.9998 7.00594 17.9998 6.97594 17.9998C6.72594 17.9798 6.47594 18.1098 6.34594 18.3198C6.21594 18.1098 5.98594 17.9898 5.74594 17.9998C5.53594 17.9898 5.33594 18.0898 5.21594 18.2698V18.0498H4.83594V19.8498H5.23594V18.8598C5.20594 18.6298 5.36594 18.4198 5.59594 18.3798C5.62594 18.3798 5.64594 18.3798 5.67594 18.3798C5.93594 18.3798 6.06594 18.5498 6.06594 18.8498V19.8498H6.46594V18.8498C6.43594 18.6198 6.59594 18.3998 6.82594 18.3698C6.85594 18.3698 6.87594 18.3698 6.90594 18.3698C7.17594 18.3698 7.30594 18.5398 7.30594 18.8398V19.8398L7.68594 19.8498ZM13.5459 18.0498H12.8959V17.4998H12.4959V18.0498H12.1359V18.4098H12.5059V19.2398C12.5059 19.6598 12.6659 19.9098 13.1359 19.9098C13.3059 19.9098 13.4759 19.8598 13.6259 19.7698L13.5159 19.4298C13.4059 19.4898 13.2959 19.5298 13.1659 19.5298C12.9759 19.5298 12.9059 19.4098 12.9059 19.2298V18.3998H13.5459V18.0498ZM16.8959 17.9998C16.7059 17.9898 16.5159 18.0998 16.4259 18.2598V18.0398H16.0359V19.8398H16.4259V18.8298C16.4259 18.5298 16.5559 18.3698 16.8059 18.3698C16.8859 18.3698 16.9759 18.3798 17.0459 18.4098L17.1659 18.0298C17.0759 17.9998 16.9859 17.9798 16.8859 17.9798L16.8959 17.9998ZM11.8359 18.1898C11.6159 18.0598 11.3559 17.9898 11.0959 17.9998C10.6359 17.9998 10.3459 18.2198 10.3459 18.5798C10.3459 18.8698 10.5659 19.0498 10.9659 19.1098L11.1559 19.1398C11.3759 19.1698 11.4759 19.2298 11.4759 19.3298C11.4759 19.4698 11.3359 19.5498 11.0659 19.5498C10.8459 19.5598 10.6359 19.4898 10.4659 19.3598L10.2759 19.6698C10.5059 19.8298 10.7759 19.9098 11.0559 19.8998C11.5759 19.8998 11.8759 19.6498 11.8759 19.3098C11.8759 18.9698 11.6359 18.8298 11.2459 18.7698L11.0559 18.7398C10.8859 18.7198 10.7459 18.6798 10.7459 18.5598C10.7459 18.4398 10.8759 18.3498 11.0859 18.3498C11.2859 18.3498 11.4759 18.4098 11.6559 18.4998L11.8359 18.1898ZM22.3359 17.9998C22.1459 17.9898 21.9559 18.0998 21.8659 18.2598V18.0398H21.4759V19.8398H21.8659V18.8298C21.8659 18.5298 21.9959 18.3698 22.2459 18.3698C22.3259 18.3698 22.4159 18.3798 22.4859 18.4098L22.6059 18.0298C22.5159 17.9998 22.4259 17.9798 22.3259 17.9798L22.3359 17.9998ZM17.2859 18.9498C17.2659 19.4498 17.6559 19.8798 18.1659 19.8898C18.1959 19.8898 18.2259 19.8898 18.2559 19.8898C18.4959 19.8998 18.7259 19.8298 18.9059 19.6798L18.7159 19.3598C18.5759 19.4598 18.4159 19.5198 18.2459 19.5198C17.9259 19.4898 17.6859 19.2098 17.7159 18.8898C17.7359 18.6098 17.9659 18.3798 18.2459 18.3598C18.4159 18.3598 18.5859 18.4198 18.7159 18.5198L18.9059 18.1998C18.7259 18.0498 18.4959 17.9698 18.2559 17.9898C17.7559 17.9598 17.3259 18.3498 17.2959 18.8498C17.2859 18.8798 17.2759 18.9098 17.2859 18.9498ZM20.9559 18.9498V18.0498H20.5659V18.2698C20.4259 18.0998 20.2159 17.9998 19.9959 18.0098C19.4759 18.0098 19.0559 18.4298 19.0559 18.9498C19.0559 19.4698 19.4759 19.8898 19.9959 19.8898C20.2159 19.8998 20.4259 19.7998 20.5659 19.6298V19.8498H20.9559V18.9498ZM19.4959 18.9498C19.5159 18.6498 19.7759 18.4298 20.0759 18.4498C20.3759 18.4698 20.5959 18.7298 20.5759 19.0298C20.5559 19.3298 20.2959 19.5498 19.9959 19.5298C19.8559 19.5198 19.7359 19.4598 19.6359 19.3598C19.5359 19.2398 19.4859 19.0898 19.4959 18.9498ZM14.7659 17.9998C14.2459 18.0098 13.8259 18.4398 13.8359 18.9598C13.8459 19.4798 14.2759 19.8998 14.7959 19.8898C15.0659 19.8998 15.3359 19.8198 15.5459 19.6398L15.3559 19.3498C15.2059 19.4698 15.0259 19.5398 14.8359 19.5398C14.5659 19.5598 14.3259 19.3698 14.2959 19.0998H15.6359V18.9498C15.6859 18.4798 15.3359 18.0598 14.8659 18.0098C14.8259 18.0098 14.7959 18.0098 14.7659 17.9998ZM14.7659 18.3498C15.0159 18.3398 15.2159 18.5398 15.2259 18.7898H14.2859C14.2959 18.5398 14.5059 18.3498 14.7659 18.3498ZM24.5859 18.9498V17.3198H24.2059V18.2598C24.0659 18.0898 23.8559 17.9898 23.6359 17.9998C23.1159 17.9998 22.6959 18.4198 22.6959 18.9398C22.6959 19.4598 23.1159 19.8798 23.6359 19.8798C23.8559 19.8898 24.0659 19.7898 24.2059 19.6198V19.8398H24.5859V18.9498ZM25.2459 19.5898C25.3159 19.5898 25.3859 19.6298 25.4159 19.6998C25.4359 19.7398 25.4359 19.7998 25.4159 19.8398C25.3959 19.8798 25.3559 19.9198 25.3159 19.9298C25.2959 19.9398 25.2659 19.9498 25.2459 19.9398C25.1759 19.9398 25.1059 19.8998 25.0759 19.8298C25.0559 19.7898 25.0559 19.7298 25.0759 19.6898C25.1059 19.6298 25.1759 19.5898 25.2459 19.5898ZM25.2459 19.9098C25.2659 19.9098 25.2859 19.9098 25.3059 19.8998C25.3259 19.8898 25.3359 19.8798 25.3459 19.8698C25.3959 19.8198 25.3959 19.7298 25.3459 19.6798C25.3359 19.6698 25.3159 19.6598 25.3059 19.6498C25.2859 19.6398 25.2659 19.6398 25.2459 19.6398C25.2259 19.6398 25.2059 19.6398 25.1859 19.6498C25.1659 19.6598 25.1559 19.6698 25.1459 19.6798C25.0959 19.7398 25.0959 19.8198 25.1559 19.8698C25.1759 19.8998 25.2159 19.9098 25.2459 19.9098ZM25.2559 19.6898C25.2759 19.6898 25.2859 19.6898 25.3059 19.6998C25.3159 19.7098 25.3259 19.7198 25.3259 19.7398C25.3259 19.7498 25.3259 19.7698 25.3159 19.7698C25.3059 19.7798 25.2859 19.7898 25.2759 19.7898L25.3359 19.8498H25.2959L25.2459 19.7898H25.2259V19.8498H25.1859V19.6798L25.2559 19.6898ZM25.2159 19.7198V19.7598H25.2559C25.2659 19.7598 25.2759 19.7598 25.2759 19.7598C25.2759 19.7498 25.2759 19.7498 25.2759 19.7398C25.2759 19.7298 25.2759 19.7298 25.2759 19.7198C25.2659 19.7198 25.2559 19.7198 25.2559 19.7198H25.2159ZM23.1459 18.9498C23.1659 18.6498 23.4259 18.4298 23.7259 18.4498C24.0259 18.4698 24.2459 18.7298 24.2259 19.0298C24.2059 19.3298 23.9459 19.5498 23.6459 19.5298C23.5059 19.5198 23.3859 19.4598 23.2859 19.3598C23.1859 19.2398 23.1359 19.0998 23.1459 18.9498ZM9.89594 18.9498V18.0498H9.50594V18.2698C9.37594 18.0898 9.16594 17.9898 8.93594 17.9998C8.41594 17.9998 7.99594 18.4198 7.99594 18.9398C7.99594 19.4598 8.41594 19.8798 8.93594 19.8798C9.15594 19.8898 9.36594 19.7898 9.50594 19.6198V19.8398H9.89594V18.9498ZM8.43594 18.9498C8.45594 18.6598 8.71594 18.4398 9.01594 18.4598C9.30594 18.4798 9.52594 18.7398 9.50594 19.0398C9.48594 19.3298 9.22594 19.5498 8.92594 19.5298C8.79594 19.5198 8.66594 19.4598 8.57594 19.3598C8.48594 19.2498 8.42594 19.0998 8.43594 18.9498Z" fill="#231F20"/>
<path d="M17.6451 4.30713H11.7051V14.9771H17.6451V4.30713Z" fill="#FF5F00"/>
<path d="M12.0848 9.64688C12.0848 7.56688 13.0348 5.59688 14.6748 4.30688C11.7248 1.98688 7.46477 2.50688 5.14477 5.44688C2.82477 8.38688 3.34477 12.6569 6.28477 14.9769C8.74477 16.9069 12.2148 16.9069 14.6748 14.9769C13.0348 13.6969 12.0848 11.7269 12.0848 9.64688Z" fill="#EB001B"/>
<path d="M25.6655 9.64705C25.6655 13.397 22.6255 16.437 18.8755 16.437C17.3555 16.437 15.8755 15.927 14.6855 14.987C17.6355 12.667 18.1455 8.40704 15.8255 5.45704C15.4955 5.03704 15.1055 4.64705 14.6855 4.31704C17.6355 1.99705 21.8955 2.50704 24.2155 5.45704C25.1455 6.64704 25.6555 8.12705 25.6655 9.64705Z" fill="#F79E1B"/>
<path d="M25.0148 13.8469V13.6269H25.1048V13.5869H24.8848V13.6269H24.9848V13.8469H25.0148ZM25.4448 13.8469V13.5869H25.3748L25.2948 13.7769L25.2148 13.5869H25.1548V13.8469H25.2048V13.6469L25.2748 13.8169H25.3248L25.3948 13.6469V13.8469H25.4448Z" fill="#F79E1B"/>
</svg>
